<?xml version="1.0" encoding="UTF-8"?>
<svg version="1.1" viewBox="0 0 16 16" xmlns="http://www.w3.org/2000/svg">
<path transform="rotate(90 7.6823 7.5648)" d="m11.24 9.9512-6.245-1e-7 3.1225-5.4083z" style="opacity:.997;paint-order:markers fill stroke;stroke-width:.693"/>
</svg>
