<?xml version="1.0" encoding="UTF-8" standalone="no"?>
<svg
   xmlns:dc="http://purl.org/dc/elements/1.1/"
   xmlns:cc="http://creativecommons.org/ns#"
   xmlns:rdf="http://www.w3.org/1999/02/22-rdf-syntax-ns#"
   xmlns:svg="http://www.w3.org/2000/svg"
   xmlns="http://www.w3.org/2000/svg"
   xmlns:sodipodi="http://sodipodi.sourceforge.net/DTD/sodipodi-0.dtd"
   xmlns:inkscape="http://www.inkscape.org/namespaces/inkscape"
   id="SVGRoot"
   version="1.1"
   viewBox="0 0 16.0 16.0"
   height="16.0px"
   width="16.0px"
   inkscape:version="1.0.2 (e86c870879, 2021-01-15)"
   sodipodi:docname="ndt-double.svg">
  <defs
     id="defs859" />
  <sodipodi:namedview
     inkscape:pagecheckerboard="false"
     inkscape:snap-to-guides="false"
     inkscape:snap-nodes="false"
     id="base"
     pagecolor="#ffffff"
     bordercolor="#666666"
     borderopacity="1.0"
     inkscape:pageopacity="0.0"
     inkscape:pageshadow="2"
     inkscape:zoom="37.587733"
     inkscape:cx="3.240708"
     inkscape:cy="8.3437769"
     inkscape:document-units="px"
     inkscape:current-layer="layer1"
     inkscape:document-rotation="0"
     showgrid="true"
     inkscape:window-width="2051"
     inkscape:window-height="1216"
     inkscape:window-x="326"
     inkscape:window-y="46"
     inkscape:window-maximized="0"
     inkscape:snap-grids="false">
    <inkscape:grid
       id="grid1429"
       type="xygrid" />
  </sodipodi:namedview>
  <metadata
     id="metadata862">
    <rdf:RDF>
      <cc:Work
         rdf:about="">
        <dc:format>image/svg+xml</dc:format>
        <dc:type
           rdf:resource="http://purl.org/dc/dcmitype/StillImage" />
        <dc:title />
      </cc:Work>
    </rdf:RDF>
  </metadata>
  <g
     inkscape:label="Layer 1"
     inkscape:groupmode="layer"
     id="layer1">
    <g
       id="g839"
       transform="matrix(0.98016708,0,0,0.98016708,0.18288624,0.15866336)">
      <text
         xml:space="preserve"
         style="font-style:normal;font-variant:normal;font-weight:normal;font-stretch:normal;font-size:8px;line-height:125%;font-family:sans-serif;-inkscape-font-specification:'sans-serif, Normal';font-variant-ligatures:normal;font-variant-caps:normal;font-variant-numeric:normal;font-variant-east-asian:normal;letter-spacing:-0.85px;word-spacing:0px;fill:#000000;fill-opacity:1;stroke:none;stroke-width:0.292482;stroke-linecap:butt;stroke-linejoin:miter;stroke-miterlimit:4;stroke-dasharray:none;stroke-opacity:1"
         x="0.26259142"
         y="10.912109"
         id="text1469"><tspan
           sodipodi:role="line"
           id="tspan833"
           x="0.26259142"
           y="10.912109"
           style="font-size:8px;stroke-width:0.292482">3.1</tspan></text>
      <text
         id="text1469-5"
         y="10.916016"
         x="10.437983"
         style="font-style:normal;font-variant:normal;font-weight:normal;font-stretch:normal;font-size:8px;line-height:125%;font-family:sans-serif;-inkscape-font-specification:'sans-serif, Normal';font-variant-ligatures:normal;font-variant-caps:normal;font-variant-numeric:normal;font-variant-east-asian:normal;letter-spacing:0px;word-spacing:0px;fill:#000000;fill-opacity:1;stroke:none;stroke-width:0.292482;stroke-linecap:butt;stroke-linejoin:miter;stroke-miterlimit:4;stroke-dasharray:none;stroke-opacity:1"
         xml:space="preserve"><tspan
           style="font-size:8px;stroke-width:0.292482"
           y="10.916016"
           x="10.437983"
           id="tspan833-9"
           sodipodi:role="line">4</tspan></text>
    </g>
  </g>
</svg>
